{
   "data" : [
      {
         "entity_type" : "atomic_creative",
         "name" : "LLBean_Nadav_Non_Secure",
         "id" : 3391835
      },
      {
         "entity_type" : "atomic_creative",
         "name" : "LLBean_Nadav_Secure",
         "id" : 3391766
      },
      {
         "entity_type" : "atomic_creative",
         "name" : "RCCL_LowerFunnelRTG_MediaMath_RTG_Step4_Desktop_Retail_dCPM_160x600",
         "id" : 3389221
      },
      {
         "entity_type" : "atomic_creative",
         "name" : "RCCL_LowerFunnelRTG_MediaMath_RTG_Step4_Desktop_Retail_dCPM_300x600",
         "id" : 3389222
      },
      {
         "entity_type" : "atomic_creative",
         "name" : "RCCL_LowerFunnelRTG_MediaMath_RTG_Step4_Desktop_Retail_dCPM_300x250",
         "id" : 3389223
      },
      {
         "entity_type" : "atomic_creative",
         "name" : "RCCL_LowerFunnelRTG_MediaMath_RTG_Step5_Desktop_Retail_dCPM_160x600",
         "id" : 3389224
      },
      {
         "entity_type" : "atomic_creative",
         "name" : "RCCL_LowerFunnelRTG_MediaMath_RTG_Step5_Desktop_Retail_dCPM_300x250",
         "id" : 3389225
      },
      {
         "entity_type" : "atomic_creative",
         "name" : "RCCL_LowerFunnelRTG_MediaMath_RTG_Step4_Desktop_Retail_dCPM_728x90",
         "id" : 3389226
      },
      {
         "entity_type" : "atomic_creative",
         "name" : "RCCL_LowerFunnelRTG_MediaMath_RTG_Step5_Desktop_Retail_dCPM_300x600",
         "id" : 3389227
      },
      {
         "entity_type" : "atomic_creative",
         "name" : "RCCL_LowerFunnelRTG_MediaMath_RTG_Step5_Desktop_Retail_dCPM_728x90",
         "id" : 3389228
      },
      {
         "entity_type" : "atomic_creative",
         "name" : "RCCL_LowerFunnelRTG_MediaMath_RTG_Step1_Desktop_Retail_dCPM_160x600",
         "id" : 3389209
      },
      {
         "entity_type" : "atomic_creative",
         "name" : "RCCL_LowerFunnelRTG_MediaMath_RTG_Step1_Desktop_Retail_dCPM_300x600",
         "id" : 3389210
      },
      {
         "entity_type" : "atomic_creative",
         "name" : "RCCL_LowerFunnelRTG_MediaMath_RTG_Step2_Desktop_Retail_dCPM_300x250",
         "id" : 3389211
      },
      {
         "entity_type" : "atomic_creative",
         "name" : "RCCL_LowerFunnelRTG_MediaMath_RTG_Step2_Desktop_Retail_dCPM_160x600",
         "id" : 3389212
      },
      {
         "entity_type" : "atomic_creative",
         "name" : "RCCL_LowerFunnelRTG_MediaMath_RTG_Step1_Desktop_Retail_dCPM_728x90",
         "id" : 3389213
      },
      {
         "entity_type" : "atomic_creative",
         "name" : "RCCL_LowerFunnelRTG_MediaMath_RTG_Step1_Desktop_Retail_dCPM_300x250",
         "id" : 3389214
      },
      {
         "entity_type" : "atomic_creative",
         "name" : "RCCL_LowerFunnelRTG_MediaMath_RTG_Step2_Desktop_Retail_dCPM_728x90",
         "id" : 3389215
      },
      {
         "entity_type" : "atomic_creative",
         "name" : "RCCL_LowerFunnelRTG_MediaMath_RTG_Step3_Desktop_Retail_dCPM_300x250",
         "id" : 3389216
      },
      {
         "entity_type" : "atomic_creative",
         "name" : "RCCL_LowerFunnelRTG_MediaMath_RTG_Step2_Desktop_Retail_dCPM_300x600",
         "id" : 3389217
      },
      {
         "entity_type" : "atomic_creative",
         "name" : "RCCL_LowerFunnelRTG_MediaMath_RTG_Step3_Desktop_Retail_dCPM_160x600",
         "id" : 3389218
      },
      {
         "entity_type" : "atomic_creative",
         "name" : "RCCL_LowerFunnelRTG_MediaMath_RTG_Step3_Desktop_Retail_dCPM_300x600",
         "id" : 3389219
      },
      {
         "entity_type" : "atomic_creative",
         "name" : "RCCL_LowerFunnelRTG_MediaMath_RTG_Step3_Desktop_Retail_dCPM_728x90",
         "id" : 3389220
      },
      {
         "entity_type" : "atomic_creative",
         "name" : "RCCL_LowerFunnelRTG_MediaMath_RTG_SearchResults_Desktop_Retail_dCPM_300x600",
         "id" : 3389203
      },
      {
         "entity_type" : "atomic_creative",
         "name" : "RCCL_LowerFunnelRTG_MediaMath_RTG_SearchResults_Desktop_Retail_dCPM_728x90",
         "id" : 3389204
      },
      {
         "entity_type" : "atomic_creative",
         "name" : "RCCL_LowerFunnelPROLP+1_MediaMath_PRO_PMP_Desktop_Retail_USNoDMA_CPM_160x600",
         "id" : 3389182
      },
      {
         "entity_type" : "atomic_creative",
         "name" : "RCCL_LowerFunnelPROLP+1_MediaMath_PRO_PMP_Desktop_Retail_USNoDMA_CPM_300x250",
         "id" : 3389183
      },
      {
         "entity_type" : "atomic_creative",
         "name" : "RCCL_LowerFunnelPROLP+1_MediaMath_PRO_PMP_Desktop_Retail_USNoDMA_CPM_728x90",
         "id" : 3389184
      },
      {
         "entity_type" : "atomic_creative",
         "name" : "RCCL_LowerFunnelPROLP+1_MediaMath_PRO_ProspectingStrategies_Desktop_Retail_USNoDMA_CPM_160x600",
         "id" : 3389185
      },
      {
         "entity_type" : "atomic_creative",
         "name" : "RCCL_LowerFunnelPROLP+1_MediaMath_PRO_ProspectingStrategies_Desktop_Retail_USNoDMA_CPM_300x250",
         "id" : 3389186
      },
      {
         "entity_type" : "atomic_creative",
         "name" : "RCCL_LowerFunnelRTG_MediaMath_RTG_AllPages_Desktop_Retail_dCPM_300x250",
         "id" : 3389187
      },
      {
         "entity_type" : "atomic_creative",
         "name" : "RCCL_LowerFunnelPROLP+1_MediaMath_PRO_ProspectingStrategies_Desktop_Retail_USNoDMA_CPM_300x600",
         "id" : 3389188
      },
      {
         "entity_type" : "atomic_creative",
         "name" : "RCCL_LowerFunnelRTG_MediaMath_RTG_AllPages_Desktop_Retail_dCPM_160x600",
         "id" : 3389189
      },
      {
         "entity_type" : "atomic_creative",
         "name" : "RCCL_LowerFunnelPROLP+1_MediaMath_PRO_ProspectingStrategies_Desktop_Retail_USNoDMA_CPM_728x90",
         "id" : 3389190
      },
      {
         "entity_type" : "atomic_creative",
         "name" : "RCCL_LowerFunnelRTG_MediaMath_RTG_AllPages_Desktop_Retail_dCPM_300x600",
         "id" : 3389191
      },
      {
         "entity_type" : "atomic_creative",
         "name" : "RCCL_LowerFunnelRTG_MediaMath_RTG_AllPages_Desktop_Retail_dCPM_728x90",
         "id" : 3389192
      },
      {
         "entity_type" : "atomic_creative",
         "name" : "RCCL_LowerFunnelRTG_MediaMath_RTG_CourtesyHold_Desktop_Retail_dCPM_160x600",
         "id" : 3389193
      },
      {
         "entity_type" : "atomic_creative",
         "name" : "RCCL_LowerFunnelRTG_MediaMath_RTG_CourtesyHold_Desktop_Retail_dCPM_300x250",
         "id" : 3389194
      },
      {
         "entity_type" : "atomic_creative",
         "name" : "RCCL_LowerFunnelRTG_MediaMath_RTG_CourtesyHold_Desktop_Retail_dCPM_300x600",
         "id" : 3389195
      },
      {
         "entity_type" : "atomic_creative",
         "name" : "RCCL_LowerFunnelRTG_MediaMath_RTG_CourtesyHold_Desktop_Retail_dCPM_728x90",
         "id" : 3389196
      },
      {
         "entity_type" : "atomic_creative",
         "name" : "RCCL_LowerFunnelRTG_MediaMath_RTG_CrossDevicePackage_Desktop_Retail_dCPM_160x600",
         "id" : 3389197
      },
      {
         "entity_type" : "atomic_creative",
         "name" : "RCCL_LowerFunnelRTG_MediaMath_RTG_CrossDevicePackage_Desktop_Retail_dCPM_300x250",
         "id" : 3389198
      },
      {
         "entity_type" : "atomic_creative",
         "name" : "RCCL_LowerFunnelRTG_MediaMath_RTG_CrossDevicePackage_Desktop_Retail_dCPM_728x90",
         "id" : 3389199
      },
      {
         "entity_type" : "atomic_creative",
         "name" : "RCCL_LowerFunnelRTG_MediaMath_RTG_CrossDevicePackage_Desktop_Retail_dCPM_300x600",
         "id" : 3389200
      },
      {
         "entity_type" : "atomic_creative",
         "name" : "RCCL_LowerFunnelRTG_MediaMath_RTG_SearchResults_Desktop_Retail_dCPM_160x600",
         "id" : 3389201
      },
      {
         "entity_type" : "atomic_creative",
         "name" : "RCCL_LowerFunnelRTG_MediaMath_RTG_SearchResults_Desktop_Retail_dCPM_300x250",
         "id" : 3389202
      },
      {
         "entity_type" : "atomic_creative",
         "name" : "RCCL_LFShoreExUS_MediaMath_RTG_ShoreExPages_Desktop_Retail_USNoDMA_CPM_300x600",
         "id" : 3389172
      },
      {
         "entity_type" : "atomic_creative",
         "name" : "RCCL_LFShoreExUS_MediaMath_RTG_ShoreExPages_Desktop_Retail_USNoDMA_CPM_728x90",
         "id" : 3389171
      },
      {
         "entity_type" : "atomic_creative",
         "name" : "RCCL_LFShoreExUS_MediaMath_RTG_ShoreExPages_Desktop_Retail_USNoDMA_CPM_300x250",
         "id" : 3389170
      },
      {
         "entity_type" : "atomic_creative",
         "name" : "RCCL_LFShoreExUS_MediaMath_RTG_ShoreExPages_Desktop_Retail_USNoDMA_CPM_160x600",
         "id" : 3389169
      },
      {
         "entity_type" : "atomic_creative",
         "name" : "RCCL_LFShoreExUS_MediaMath_RTG_DMPSegment_Desktop_Retail_USNoDMA_CPM_300x600",
         "id" : 3389168
      }
   ],
   "meta" : {
      "next_page" : "https://api.mediamath.com/api/v2.0/atomic_creatives?page_offset=50&q=media_type%3D%3Ddisplay%26%3Cbean%3E&order_by=descending&api_key=5d1f6022b4cfe3dc1b0728878c592a38&page_limit=50",
      "etag" : "87fc2383e42f89f9ea6795eddeef0f5790db0b25",
      "count" : 50,
      "called_on" : "2017-01-09T17:29:13+0000",
      "status" : "ok",
      "offset" : "0",
      "total_count" : 2993
   }
}
