{
   "data" : [
      {
         "entity_type" : "atomic_creative",
         "name" : "01_PEP_D6135_Superbowl17_hero_CreativeA_AXT_O_728x90_Ldrbrd_ENG_01",
         "id" : 3408769
      },
      {
         "entity_type" : "atomic_creative",
         "name" : "01_PEP_D6135_Superbowl17_hero_CreativeA_AXT_O_480x75_Mobile480axt_ENG_01",
         "id" : 3408768
      },
      {
         "entity_type" : "atomic_creative",
         "name" : "01_PEP_D6135_Superbowl17_hero_CreativeA_AXT_O_320x50_Mobile320_ENG_01",
         "id" : 3408767
      },
      {
         "entity_type" : "atomic_creative",
         "name" : "01_PEP_D6135_Superbowl17_hero_CreativeA_AXT_O_300x250_MedRect_ENG_01",
         "id" : 3408766
      },
      {
         "entity_type" : "atomic_creative",
         "name" : "PC4DSN_VE Interactive_re-targeting_ROS 728x90 // 03112016",
         "id" : 3408760
      },
      {
         "entity_type" : "atomic_creative",
         "name" : "PC4DSM_VE Interactive_re-targeting_ROS 300x250 // 03112016",
         "id" : 3408761
      },
      {
         "entity_type" : "atomic_creative",
         "name" : "AMD_AveoFinanciero_Pre-home_1216_990x579",
         "id" : 3408756
      },
      {
         "entity_type" : "atomic_creative",
         "name" : "AMD_AveoFinanciero_Pre-home_1216_955x550",
         "id" : 3408755
      },
      {
         "entity_type" : "atomic_creative",
         "name" : "AMD_AveoFinanciero_Pre-home_1216_950x70",
         "id" : 3408754
      },
      {
         "entity_type" : "atomic_creative",
         "name" : "AMD_AveoFinanciero_Pre-home_1216_900x500",
         "id" : 3408753
      },
      {
         "entity_type" : "atomic_creative",
         "name" : "AMD_AveoFinanciero_Pre-home_1216_800x600",
         "id" : 3408752
      },
      {
         "entity_type" : "atomic_creative",
         "name" : "AMD_AveoFinanciero_Pre-home_1216_800",
         "id" : 3408751
      },
      {
         "entity_type" : "atomic_creative",
         "name" : "AMD_AveoFinanciero_Pre-home_1216_768x115",
         "id" : 3408750
      },
      {
         "entity_type" : "atomic_creative",
         "name" : "AMD_Aveo-Financiero_Pre-home_1216_728x90",
         "id" : 3408749
      },
      {
         "entity_type" : "atomic_creative",
         "name" : "AMD_AveoFinanciero_Pre-home_1216_600x850",
         "id" : 3408748
      },
      {
         "entity_type" : "atomic_creative",
         "name" : "AMD_AveoFinanciero_Pre-home_1216_320x53",
         "id" : 3408747
      },
      {
         "entity_type" : "atomic_creative",
         "name" : "AMD_AveoFinancieros_Pre-home_1216_300x250",
         "id" : 3408746
      },
      {
         "entity_type" : "atomic_creative",
         "name" : "AMD_AveoFinanciero_Pre-home_1216_1250x850",
         "id" : 3408745
      },
      {
         "entity_type" : "atomic_creative",
         "name" : "AMD_AveoFinanciero_Pre-home_1216_1000x540",
         "id" : 3408744
      },
      {
         "entity_type" : "atomic_creative",
         "name" : "GDN_336x280_cupones",
         "id" : 3408734
      },
      {
         "entity_type" : "atomic_creative",
         "name" : "RTB_468x60_cupones",
         "id" : 3408735
      },
      {
         "entity_type" : "atomic_creative",
         "name" : "RTB_728x90_cupones",
         "id" : 3408736
      },
      {
         "entity_type" : "atomic_creative",
         "name" : "RTB_970x250_cupones",
         "id" : 3408737
      },
      {
         "entity_type" : "atomic_creative",
         "name" : "RTB_300x50_cupones",
         "id" : 3408730
      },
      {
         "entity_type" : "atomic_creative",
         "name" : "RTB_300x600cupones",
         "id" : 3408731
      },
      {
         "entity_type" : "atomic_creative",
         "name" : "RTB_320x480_cupones",
         "id" : 3408732
      },
      {
         "entity_type" : "atomic_creative",
         "name" : "RTB_320x50_cupones",
         "id" : 3408733
      },
      {
         "entity_type" : "atomic_creative",
         "name" : "RTB_120x600_cupones",
         "id" : 3408727
      },
      {
         "entity_type" : "atomic_creative",
         "name" : "RTB_160x600_cupones",
         "id" : 3408728
      },
      {
         "entity_type" : "atomic_creative",
         "name" : "RTB_300x250_cupones",
         "id" : 3408729
      },
      {
         "entity_type" : "atomic_creative",
         "name" : "Gocompare_HomePriceDynamic_1200x600_2 36707231",
         "id" : 3408724
      },
      {
         "entity_type" : "atomic_creative",
         "name" : "Gocompare_HomePriceDynamic_160x600_2 36707226",
         "id" : 3408723
      },
      {
         "entity_type" : "atomic_creative",
         "name" : "Gocompare_HomePriceDynamic_300x250_2 36707227",
         "id" : 3408722
      },
      {
         "entity_type" : "atomic_creative",
         "name" : "Gocompare_HomePriceDynamic_300x600_2 36707228",
         "id" : 3408721
      },
      {
         "entity_type" : "atomic_creative",
         "name" : "Gocompare_HomePriceDynamic_728x90_2 36707229",
         "id" : 3408720
      },
      {
         "entity_type" : "atomic_creative",
         "name" : "Gocompare_HomePriceDynamic_970x250_2 36707230",
         "id" : 3408719
      },
      {
         "entity_type" : "atomic_creative",
         "name" : "AMD_AveoFinanciero_Pre-home_1216_990x579",
         "id" : 3408718
      },
      {
         "entity_type" : "atomic_creative",
         "name" : "AMD_AveoFinanciero_Pre-home_1216_955x550",
         "id" : 3408717
      },
      {
         "entity_type" : "atomic_creative",
         "name" : "AMD_AveoFinanciero_Pre-home_1216_950x70",
         "id" : 3408716
      },
      {
         "entity_type" : "atomic_creative",
         "name" : "AMD_AveoFinanciero_Pre-home_1216_900x500",
         "id" : 3408715
      },
      {
         "entity_type" : "atomic_creative",
         "name" : "AMD_AveoFinanciero_Pre-home_1216_800x600",
         "id" : 3408714
      },
      {
         "entity_type" : "atomic_creative",
         "name" : "AMD_AveoFinanciero_Pre-home_1216_800",
         "id" : 3408713
      },
      {
         "entity_type" : "atomic_creative",
         "name" : "AMD_AveoFinanciero_Pre-home_1216_768x115",
         "id" : 3408712
      },
      {
         "entity_type" : "atomic_creative",
         "name" : "AMD_Aveo-Financiero_Pre-home_1216_728x90",
         "id" : 3408711
      },
      {
         "entity_type" : "atomic_creative",
         "name" : "AMD_AveoFinanciero_Pre-home_1216_600x850",
         "id" : 3408710
      },
      {
         "entity_type" : "atomic_creative",
         "name" : "AMD_AveoFinanciero_Pre-home_1216_320x53",
         "id" : 3408709
      },
      {
         "entity_type" : "atomic_creative",
         "name" : "AMD_AveoFinancieros_Pre-home_1216_300x250",
         "id" : 3408708
      },
      {
         "entity_type" : "atomic_creative",
         "name" : "AMD_AveoFinanciero_Pre-home_1216_1250x850",
         "id" : 3408707
      },
      {
         "entity_type" : "atomic_creative",
         "name" : "AMD_AveoFinanciero_Pre-home_1216_1000x540",
         "id" : 3408706
      },
      {
         "entity_type" : "atomic_creative",
         "name" : "RTB-Enero2017-300x250-3",
         "id" : 3408705
      }
   ],
   "meta" : {
      "next_page" : "https://api.mediamath.com/api/v2.0/atomic_creatives?page_offset=50&q=media_type%3D%3Ddisplay&order_by=descending&api_key=5d1f6022b4cfe3dc1b0728878c592a38&page_limit=50",
      "etag" : "002954049a9f5728e98b4c37d2721015725824f5",
      "count" : 50,
      "called_on" : "2017-01-09T17:28:26+0000",
      "status" : "ok",
      "offset" : "0",
      "total_count" : 3252317
   }
}
