{
   "data" : [
      {
         "entity_type" : "atomic_creative",
         "name" : "PS-DE-iOS-VOD-L-MM.gm.Adbility-VEGAS-S-VOD-P-R",
         "id" : 3408492
      },
      {
         "entity_type" : "atomic_creative",
         "name" : "PS-DE-iOS-VOD-L-MM.ft.ViceMedia-VEGAS-S-VOD-P-R",
         "id" : 3408488
      },
      {
         "entity_type" : "atomic_creative",
         "name" : "PS-DE-iOS-VOD-L-MM.ft.Spiegel-VEGAS-S-VOD-P-R",
         "id" : 3408484
      },
      {
         "entity_type" : "atomic_creative",
         "name" : "PS-DE-iOS-VOD-L-MM.ft.PERFORM-VEGAS-S-VOD-P-R",
         "id" : 3408468
      },
      {
         "entity_type" : "atomic_creative",
         "name" : "PS-DE-iOS-VOD-L-MM.ft.Goldbach-VEGAS-S-VOD-P-R",
         "id" : 3408467
      },
      {
         "entity_type" : "atomic_creative",
         "name" : "PS-DE-iOS-VOD-L-MM.ft.Gimsprt-VEGAS-S-VOD-P-R",
         "id" : 3408464
      },
      {
         "entity_type" : "atomic_creative",
         "name" : "PS-DE-iOS-VOD-L-MM.ft.90min-VEGAS-S-VOD-P-R",
         "id" : 3408453
      },
      {
         "entity_type" : "atomic_creative",
         "name" : "PS-DE-iOS-VOD-L-MM.ft.7oneMedia-VEGAS-S-VOD-P-R",
         "id" : 3408447
      },
      {
         "entity_type" : "atomic_creative",
         "name" : "PS-DE-iOS-VOD-L-MM.ContxtDVml-VEGAS-S-VOD-P-R",
         "id" : 3408446
      },
      {
         "entity_type" : "atomic_creative",
         "name" : "PS-DE-iOS-VOD-L-MM.ADEX-VEGAS-S-VOD-P-R",
         "id" : 3408426
      },
      {
         "entity_type" : "atomic_creative",
         "name" : "PS-DE-AND-VOD-L-MM.P39sport-VEGAS-S-VOD-P-R",
         "id" : 3408409
      },
      {
         "entity_type" : "atomic_creative",
         "name" : "PS-DE-AND-VOD-L-MM.P39game-VEGAS-S-VOD-P-R",
         "id" : 3408358
      },
      {
         "entity_type" : "atomic_creative",
         "name" : "PS-DE-AND-VOD-L-MM.ns.StroerNws-VEGAS-S-VOD-P-R",
         "id" : 3408357
      },
      {
         "entity_type" : "atomic_creative",
         "name" : "PS-DE-AND-VOD-L-MM.ns.IQdigital-VEGAS-S-VOD-P-R",
         "id" : 3408355
      },
      {
         "entity_type" : "atomic_creative",
         "name" : "PS-DE-AND-VOD-L-MM.mls.Stickyads-VEGAS-S-VOD-P-R",
         "id" : 3408324
      },
      {
         "entity_type" : "atomic_creative",
         "name" : "PS-DE-AND-VOD-L-MM.mls.SpotX-VEGAS-S-VOD-P-R",
         "id" : 3408232
      },
      {
         "entity_type" : "atomic_creative",
         "name" : "PS-DE-AND-VOD-L-MM.mls.Spotify-VEGAS-S-VOD-P-R",
         "id" : 3407940
      },
      {
         "entity_type" : "atomic_creative",
         "name" : "PS-DE-AND-VOD-L-MM.mls.smartclip-VEGAS-S-VOD-P-R",
         "id" : 3407939
      },
      {
         "entity_type" : "atomic_creative",
         "name" : "PS-DE-AND-VOD-L-MM.mls.Opera-VEGAS-S-VOD-P-R",
         "id" : 3407684
      },
      {
         "entity_type" : "atomic_creative",
         "name" : "PS-DE-AND-VOD-L-MM.mls.Audienz-VEGAS-S-VOD-P-R",
         "id" : 3407679
      },
      {
         "entity_type" : "atomic_creative",
         "name" : "PS-DE-AND-VOD-L-MM.ml.forbes-VEGAS-S-VOD-P-R",
         "id" : 3407665
      },
      {
         "entity_type" : "atomic_creative",
         "name" : "PS-DE-AND-VOD-L-MM.lotame-VEGAS-S-VOD-P-R",
         "id" : 3407664
      },
      {
         "entity_type" : "atomic_creative",
         "name" : "PS-DE-AND-VOD-L-MM.gm.zynga-VEGAS-S-VOD-P-R",
         "id" : 3407663
      },
      {
         "entity_type" : "atomic_creative",
         "name" : "PS-DE-AND-VOD-L-MM.gm.Twitch-VEGAS-S-VOD-P-R",
         "id" : 3407651
      },
      {
         "entity_type" : "atomic_creative",
         "name" : "PS-DE-AND-VOD-L-MM.gm.TVsmiles-VEGAS-S-VOD-P-R",
         "id" : 3407649
      },
      {
         "entity_type" : "atomic_creative",
         "name" : "PS-DE-AND-VOD-L-MM.gm.Stoer-VEGAS-S-VOD-P-R",
         "id" : 3407648
      },
      {
         "entity_type" : "atomic_creative",
         "name" : "PS-DE-AND-VOD-L-MM.gm.softgames-VEGAS-S-VOD-P-R",
         "id" : 3407647
      },
      {
         "entity_type" : "atomic_creative",
         "name" : "PS-DE-AND-VOD-L-MM.gm.Smartclip-VEGAS-S-VOD-P-R",
         "id" : 3407632
      },
      {
         "entity_type" : "atomic_creative",
         "name" : "PS-DE-AND-VOD-L-MM.gm.Kr3m-VEGAS-S-VOD-P-R",
         "id" : 3407614
      },
      {
         "entity_type" : "atomic_creative",
         "name" : "PS-DE-AND-VOD-L-MM.gm.audienz-VEGAS-S-VOD-P-R",
         "id" : 3407606
      },
      {
         "entity_type" : "atomic_creative",
         "name" : "PS-DE-AND-VOD-L-MM.gm.Adbility-VEGAS-S-VOD-P-R",
         "id" : 3407593
      },
      {
         "entity_type" : "atomic_creative",
         "name" : "PS-DE-AND-VOD-L-MM.ft.ViceMedia-VEGAS-S-VOD-P-R",
         "id" : 3407592
      },
      {
         "entity_type" : "atomic_creative",
         "name" : "PS-DE-AND-VOD-L-MM.ft.Spiegel-VEGAS-S-VOD-P-R",
         "id" : 3407591
      },
      {
         "entity_type" : "atomic_creative",
         "name" : "PS-DE-AND-VOD-L-MM.ft.PERFORM-VEGAS-S-VOD-P-R",
         "id" : 3407590
      },
      {
         "entity_type" : "atomic_creative",
         "name" : "PS-DE-AND-VOD-L-MM.ft.Goldbach-VEGAS-S-VOD-P-R",
         "id" : 3407589
      },
      {
         "entity_type" : "atomic_creative",
         "name" : "PS-DE-AND-VOD-L-MM.ft.Gimsprt-VEGAS-S-VOD-P-R",
         "id" : 3407588
      },
      {
         "entity_type" : "atomic_creative",
         "name" : "PS-DE-AND-VOD-L-MM.ft.90min-VEGAS-S-VOD-P-R",
         "id" : 3407585
      },
      {
         "entity_type" : "atomic_creative",
         "name" : "PS-DE-AND-VOD-L-MM.ft.7oneMedia-VEGAS-S-VOD-P-R",
         "id" : 3407583
      },
      {
         "entity_type" : "atomic_creative",
         "name" : "PS-DE-AND-VOD-L-MM.ContxtDVml-VEGAS-S-VOD-P-R",
         "id" : 3407581
      },
      {
         "entity_type" : "atomic_creative",
         "name" : "PS-DE-AND-VOD-L-MM.ADEX-VEGAS-S-VOD-P-R",
         "id" : 3407578
      },
      {
         "entity_type" : "atomic_creative",
         "name" : "Jennifer Lopez Round 3 2017_Media Math_Las Vegas, NV_desktop_video_1920x1080",
         "id" : 3403350
      },
      {
         "entity_type" : "atomic_creative",
         "name" : "Jennifer Lopez Round 3 2017_Media Math_Las Vegas, NV_mobile_video_1920x1080",
         "id" : 3403346
      },
      {
         "entity_type" : "atomic_creative",
         "name" : "PS-DE-DESK-VOD-L-MM.mls.IAShighvw-VEGAS-S-VOD-P-R",
         "id" : 3403336
      },
      {
         "entity_type" : "atomic_creative",
         "name" : "PS-DE-DESK-VOD-L-MM.ContxtDVnws-VEGAS-S-VOD-P-R",
         "id" : 3403302
      },
      {
         "entity_type" : "atomic_creative",
         "name" : "PS-DE-DESK-VOD-L-MM.ContxtDVml-VEGAS-S-VOD-P-R",
         "id" : 3403289
      },
      {
         "entity_type" : "atomic_creative",
         "name" : "PS-DE-DESK-VOD-L-MM.P39sport-VEGAS-S-VOD-P-R",
         "id" : 3403251
      },
      {
         "entity_type" : "atomic_creative",
         "name" : "PS-DE-DESK-VOD-L-MM.P39game-VEGAS-S-VOD-P-R",
         "id" : 3403229
      },
      {
         "entity_type" : "atomic_creative",
         "name" : "PS-DE-DESK-VOD-L-MM.ADEX-VEGAS-S-VOD-P-R",
         "id" : 3403153
      },
      {
         "entity_type" : "atomic_creative",
         "name" : "PS-DE-DESK-VOD-L-MM.lotame-VEGAS-S-VOD-P-R",
         "id" : 3403015
      },
      {
         "entity_type" : "atomic_creative",
         "name" : "PS-DE-DESK-VOD-L-MM.gm.DingiTV-VEGAS-S-VOD-P-R",
         "id" : 3402999
      }
   ],
   "meta" : {
      "next_page" : "https://api.mediamath.com/api/v2.0/atomic_creatives?page_offset=50&q=media_type%3D%3Dvideo%26%3Cvegas%3E&order_by=descending&api_key=5d1f6022b4cfe3dc1b0728878c592a38&page_limit=50",
      "etag" : "143997b080aba40c08fa4670cf06246eab400702",
      "count" : 50,
      "called_on" : "2017-01-09T17:02:06+0000",
      "status" : "ok",
      "offset" : "0",
      "total_count" : 171
   }
}
