{
   "data" : [
      {
         "entity_type" : "atomic_creative",
         "name" : "Media Math_Darien Center, NY_Video",
         "id" : 3408593
      },
      {
         "entity_type" : "atomic_creative",
         "name" : "Media Math_Dallas, TX_Video",
         "id" : 3408545
      },
      {
         "entity_type" : "atomic_creative",
         "name" : "Media Math_Concord, CA_Video",
         "id" : 3408526
      },
      {
         "entity_type" : "atomic_creative",
         "name" : "Media Math_Clarkston, MI_Video",
         "id" : 3408518
      },
      {
         "entity_type" : "atomic_creative",
         "name" : "Media Math_Cincinnati, OH_Video",
         "id" : 3408493
      },
      {
         "entity_type" : "atomic_creative",
         "name" : "PS-DE-iOS-VOD-L-MM.gm.Adbility-VEGAS-S-VOD-P-R",
         "id" : 3408492
      },
      {
         "entity_type" : "atomic_creative",
         "name" : "PS-DE-iOS-VOD-L-MM.ft.ViceMedia-VEGAS-S-VOD-P-R",
         "id" : 3408488
      },
      {
         "entity_type" : "atomic_creative",
         "name" : "Media Math_Chicago, IL_Video",
         "id" : 3408486
      },
      {
         "entity_type" : "atomic_creative",
         "name" : "PS-DE-iOS-VOD-L-MM.ft.Spiegel-VEGAS-S-VOD-P-R",
         "id" : 3408484
      },
      {
         "entity_type" : "atomic_creative",
         "name" : "Media Math_Charlotte, NC_Video",
         "id" : 3408483
      },
      {
         "entity_type" : "atomic_creative",
         "name" : "Media Math_Camden, NJ_Video",
         "id" : 3408474
      },
      {
         "entity_type" : "atomic_creative",
         "name" : "PS-DE-iOS-VOD-L-MM.ft.PERFORM-VEGAS-S-VOD-P-R",
         "id" : 3408468
      },
      {
         "entity_type" : "atomic_creative",
         "name" : "PS-DE-iOS-VOD-L-MM.ft.Goldbach-VEGAS-S-VOD-P-R",
         "id" : 3408467
      },
      {
         "entity_type" : "atomic_creative",
         "name" : "Media Math_Bristow, VA_Video",
         "id" : 3408466
      },
      {
         "entity_type" : "atomic_creative",
         "name" : "PS-CH-iOS-VOD-L-MM.mls.Spotify-SAG.NJR-S-VOD-P-DE",
         "id" : 3408465
      },
      {
         "entity_type" : "atomic_creative",
         "name" : "PS-DE-iOS-VOD-L-MM.ft.Gimsprt-VEGAS-S-VOD-P-R",
         "id" : 3408464
      },
      {
         "entity_type" : "atomic_creative",
         "name" : "PS-DE-iOS-VOD-L-MM.ft.90min-VEGAS-S-VOD-P-R",
         "id" : 3408453
      },
      {
         "entity_type" : "atomic_creative",
         "name" : "Media Math_Boston, MA_Video",
         "id" : 3408449
      },
      {
         "entity_type" : "atomic_creative",
         "name" : "PS-CH-iOS-VOD-L-MM.mls.Opera-SAG.NJR-S-VOD-P-DE",
         "id" : 3408448
      },
      {
         "entity_type" : "atomic_creative",
         "name" : "PS-DE-iOS-VOD-L-MM.ft.7oneMedia-VEGAS-S-VOD-P-R",
         "id" : 3408447
      },
      {
         "entity_type" : "atomic_creative",
         "name" : "PS-DE-iOS-VOD-L-MM.ContxtDVml-VEGAS-S-VOD-P-R",
         "id" : 3408446
      },
      {
         "entity_type" : "atomic_creative",
         "name" : "15Seconds_SX_Oakland_2.4.17",
         "id" : 3408445
      },
      {
         "entity_type" : "atomic_creative",
         "name" : "UK Gaviscon DA [GMT] [2017]_In-Stream_Video[VPAID2]_115614_MM-Programmatic Video",
         "id" : 3408444
      },
      {
         "entity_type" : "atomic_creative",
         "name" : "UK Gaviscon DA [GMT] [2017]_In-Stream_Video[VPAID2]_47955_MM-Programmatic Video",
         "id" : 3408443
      },
      {
         "entity_type" : "atomic_creative",
         "name" : "UK Gaviscon DA [GMT] [2017]_In-Stream_Video[VPAID2]_82450_MM-Programmatic Video",
         "id" : 3408442
      },
      {
         "entity_type" : "atomic_creative",
         "name" : "UK Gaviscon DA [GMT] [2017]_In-Stream_Video[VPAID2]_98193_MM-Programmatic Video",
         "id" : 3408441
      },
      {
         "entity_type" : "atomic_creative",
         "name" : "UK Gaviscon DA [GMT] [2017]_In-Stream_Video[VPAID2]_113043_MM-Programmatic Video",
         "id" : 3408440
      },
      {
         "entity_type" : "atomic_creative",
         "name" : "UK Gaviscon DA [GMT] [2017]_In-Stream_Video[VPAID2]_82449_MM-Programmatic Video",
         "id" : 3408439
      },
      {
         "entity_type" : "atomic_creative",
         "name" : "UK Gaviscon DA [GMT] [2017]_In-Stream_Video[VPAID2]_86096_MM-Programmatic Video",
         "id" : 3408438
      },
      {
         "entity_type" : "atomic_creative",
         "name" : "PS-CH-iOS-VOD-L-MM.mls.Goldbach-SAG.NJR-S-VOD-P-DE",
         "id" : 3408437
      },
      {
         "entity_type" : "atomic_creative",
         "name" : "UK Gaviscon DA [GMT] [2017]_In-Stream_Video[VPAID2]_13509_MM-Programmatic Video",
         "id" : 3408436
      },
      {
         "entity_type" : "atomic_creative",
         "name" : "UK Gaviscon DA [GMT] [2017]_In-Stream_Video[VPAID2]_14663_MM-Programmatic Video",
         "id" : 3408435
      },
      {
         "entity_type" : "atomic_creative",
         "name" : "UK Gaviscon DA [GMT] [2017]_In-Stream_Video[VPAID2]_105448_MM-Programmatic Video",
         "id" : 3408434
      },
      {
         "entity_type" : "atomic_creative",
         "name" : "UK Gaviscon DA [GMT] [2017]_In-Stream_Video[VPAID2]_11588_MM-Programmatic Video",
         "id" : 3408433
      },
      {
         "entity_type" : "atomic_creative",
         "name" : "UK Gaviscon DA [GMT] [2017]_In-Stream_Video[VPAID2]_25626_MM-Programmatic Video",
         "id" : 3408432
      },
      {
         "entity_type" : "atomic_creative",
         "name" : "UK Gaviscon DA [GMT] [2017]_In-Stream_Video[VPAID2]_75509_MM-Programmatic Video",
         "id" : 3408431
      },
      {
         "entity_type" : "atomic_creative",
         "name" : "UK Gaviscon DA [GMT] [2017]_In-Stream_Video[VPAID2]_48973_MM-Programmatic Video",
         "id" : 3408430
      },
      {
         "entity_type" : "atomic_creative",
         "name" : "UK Gaviscon DA [GMT] [2017]_In-Stream_Video[VPAID2]_88586_MM-Programmatic Video",
         "id" : 3408429
      },
      {
         "entity_type" : "atomic_creative",
         "name" : "UK Gaviscon DA [GMT] [2017]_In-Stream_Video[VPAID2]_87840_MM-Programmatic Video",
         "id" : 3408428
      },
      {
         "entity_type" : "atomic_creative",
         "name" : "UK Gaviscon DA [GMT] [2017]_In-Stream_Video[VPAID2]_9167_MM-Programmatic Video",
         "id" : 3408427
      },
      {
         "entity_type" : "atomic_creative",
         "name" : "PS-DE-iOS-VOD-L-MM.ADEX-VEGAS-S-VOD-P-R",
         "id" : 3408426
      },
      {
         "entity_type" : "atomic_creative",
         "name" : "Media Math_Bethel, NY_Video",
         "id" : 3408425
      },
      {
         "entity_type" : "atomic_creative",
         "name" : "PS-CH-iOS-VOD-L-MM.mls.7onemedia-SAG.NJR-S-VOD-P-DE",
         "id" : 3408424
      },
      {
         "entity_type" : "atomic_creative",
         "name" : "PS-CH-iOS-VOD-L-MM.ml.forbes-SAG.NJR-S-VOD-P-DE",
         "id" : 3408410
      },
      {
         "entity_type" : "atomic_creative",
         "name" : "PS-DE-AND-VOD-L-MM.P39sport-VEGAS-S-VOD-P-R",
         "id" : 3408409
      },
      {
         "entity_type" : "atomic_creative",
         "name" : "Media Math_Inglewood, CA_Video",
         "id" : 3408360
      },
      {
         "entity_type" : "atomic_creative",
         "name" : "PS-CH-iOS-VOD-L-MM.Lotame-SAG.NJR-S-VOD-P-DE",
         "id" : 3408359
      },
      {
         "entity_type" : "atomic_creative",
         "name" : "PS-DE-AND-VOD-L-MM.P39game-VEGAS-S-VOD-P-R",
         "id" : 3408358
      },
      {
         "entity_type" : "atomic_creative",
         "name" : "PS-DE-AND-VOD-L-MM.ns.StroerNws-VEGAS-S-VOD-P-R",
         "id" : 3408357
      },
      {
         "entity_type" : "atomic_creative",
         "name" : "PS-CH-iOS-VOD-L-MM.gm.zynga-SAG.NJR-S-VOD-P-DE",
         "id" : 3408356
      }
   ],
   "meta" : {
      "next_page" : "https://api.mediamath.com/api/v2.0/atomic_creatives?page_offset=50&q=media_type%3D%3Dvideo&order_by=descending&api_key=5d1f6022b4cfe3dc1b0728878c592a38&page_limit=50",
      "etag" : "5627ba7c6a0cbc685b9bc4ac6f78db64c678a0e6",
      "count" : 50,
      "called_on" : "2017-01-09T17:01:01+0000",
      "status" : "ok",
      "offset" : "0",
      "total_count" : 55657
   }
}
